

Method: 

 modprobe ufs2 ;  modprobe ufs ; mount -r -t ufs -o ro  -o ufstype=ufs2 /dev/sda1         /media/sda1



./modules/4.9.0-11-amd64/kernel/fs/ufs/ufs.ko
./modules/4.9.0-11-amd64/kernel/drivers/scsi/ufs/ufshcd.ko
./modules/4.9.0-11-amd64/kernel/drivers/scsi/ufs/ufshcd-pci.ko


root@DEVUAN:/tmp/linux-kernel-collection# nconfig find ufs.ko
./lib/modules/3.16.0-4-586/kernel/fs/aufs/aufs.ko
./lib/modules/3.16.0-4-586/kernel/fs/ufs/ufs.ko
./lib/modules/5.14.14-arch1-1/kernel/fs/ufs/ufs.ko.zst
./lib/modules/4.9.0-11-686/kernel/fs/ufs/ufs.ko
./lib/modules/4.9.0-11-amd64/kernel/fs/ufs/ufs.ko
./lib/modules/3.16.0-4-686-pae/kernel/fs/aufs/aufs.ko
./lib/modules/3.16.0-4-686-pae/kernel/fs/ufs/ufs.ko


